Complete Hansard Data Processing Workflow • hansardR
…
# Most active debates in sample data
popular_debates <- tbls$speeches |>
  left_join(tbls$debates, by = "debate_id") |>
  filter(!is.na(debate_title)) |>
  count(debate_title, sort = TRUE) |>
  collect()

cat("\nMost discussed topics in sample data:\n")
#> 
#> Most discussed topics in sample data:
print(popular_debates)
#> # A tibble: 25 × 2
#>    debate_title                     n
#>    <chr>                        <int>
#>  1 QUESTIONS WITHOUT NOTICE       528
#>  2 BILLS                          122
#>  3 STATEMENTS BY MEMBERS          106
#>  4 MATTERS OF PUBLIC IMPORTANCE    43
#>  5 ADJOURNMENT                     37
#>  6 CONSTITUENCY STATEMENTS         21
#>  7 CONDOLENCES                     21
#>  8 MOTIONS                         13
#>  9 COMMITTEES                      12
#> 10 BUSINESS                        12
#> # ℹ 15 more rows
…
cat("Member activity in sample data:\n")
#> Member activity in sample data:
print(sample_speakers)
#> # A tibble: 96 × 9
#>    full_name      party electorate sessions_active total_contributions questions
#>    <chr>          <chr> <chr>                <int>               <int> <lgl>    
#>  1 Dick, Milton … ALP   Oxley                    5                 172 NA       
#>  2 Albanese, Ant… ALP   Grayndler                4                  32 NA       
#>  3 DEPUTY SPEAKE… NA    NA                       3                  21 NA       
#>  4 Chalmers, Jim… ALP   Rankin                   3                  18 NA       
#>  5 Sukkar, Micha… LP    Deakin                   4                  16 NA       
#>  6 Dutton, Peter… LNP   Dickson                  4                  15 NA       
#>  7 Burke, Tony MP ALP   Watson                   5                  14 NA       
#>  8 Claydon, Shar… ALP   Newcastle                5                  14 NA       
#>  9 Taylor, Angus… LP    Hume                     3                  14 NA       
#> 10 Plibersek, Ta… ALP   Sydney                   3                   8 NA       
#> # ℹ 86 more rows
#> # ℹ 3 more variables: answers <lgl>, speeches <lgl>, avg_speech_length <dbl>
…
